-I"D:\Berkenaan dengan apa yang harus saya tekuni\BP Estimation\Android\Background\codegen\lib\extract"
-I"D:\Berkenaan dengan apa yang harus saya tekuni\BP Estimation\Android\Background"
-I"C:\Program Files\MATLAB\R2019b\extern\include"
-I"C:\Program Files\MATLAB\R2019b\simulink\include"
-I"C:\Program Files\MATLAB\R2019b\rtw\c\src"
-I"C:\Program Files\MATLAB\R2019b\rtw\c\src\ext_mode\common"
-I"C:\Program Files\MATLAB\R2019b\rtw\c\ert"
